…
``` r
# filter the data with nationality.
KLC_eng <- KLC_clean %>% 
  filter(Nationality %in% c("미국", "영국", "호주", "필리핀", "싱가포르", "인도", "르완다"))

KLC_eng %>% 
  select(ID, Nationality, Text) %>% 
  unnest_tokens(word, Text) %>% 
  group_by(ID)
```

    # A tibble: 7,751 × 3
    # Groups:   ID [81]
       ID                    Nationality word      
       <chr>                 <chr>       <chr>     
     1 A100003_v01.txt_1.txt 미국        우리      
     2 A100003_v01.txt_1.txt 미국        집에      
     3 A100003_v01.txt_1.txt 미국        갔습니다  
     4 A100003_v01.txt_1.txt 미국        강아지하고
     5 A100003_v01.txt_1.txt 미국        제        
     6 A100003_v01.txt_1.txt 미국        집에      
     7 A100003_v01.txt_1.txt 미국        갔습니다  
     8 A100003_v01.txt_1.txt 미국        우리가    
     9 A100003_v01.txt_1.txt 미국        놀았습니다
    10 A100003_v01.txt_1.txt 미국        저는      
    # … with 7,741 more rows

``` r
KLC_eng %>% 
  select(ID,Nationality, Text)
```

    # A tibble: 81 × 3
       ID                    Nationality Text                                       
       <chr>                 <chr>       <chr>                                      
     1 A100003_v01.txt_1.txt 미국        우리 집에 갔습니다. 강아지하고 제 집에 갔… 
     2 A100004_v01.txt_1.txt 미국        저는 여행을 좋아합니다. 십이월에 여행을 가…
     3 A100011_v03.txt_1.txt 영국        저는 방학 기간에 여행을 가고 싶습니다. 시… 
     4 A100074_v03.txt_1.txt 호주        어제가 부산에서 갔어요. 11시에 부신에서 도…
     5 A100140_v02.txt_1.txt 미국        일요일에 명동에 갔습니다. 제 친구하고 명동…
     6 A100148_v02.txt_1.txt 미국        이번 주말에 저는 영화을 가고 싶습니다. 토… 
     7 A100154_v02.txt_1.txt 필리핀      저는 필리핀에서 갔습니다. 저 친구하고 갔습…
     8 A100166_v02.txt_1.txt 필리핀      저는 여행에 부산에 갈 겁니다. 일요일 다음 …
     9 A100234_v02.txt_1.txt 필리핀      지난 주말에 인사동에 갔습니다. 택시 정류소…
    10 A100235_v02.txt_1.txt 필리핀      다음 주에 여행이 하고 싶습니다. 우리는 부… 
    # … with 71 more rows
…
### Tokenization

``` r
KLC_tok <- KLC_eng %>% 
  select(ID, Nationality, Text) %>% 
  unnest_tokens(word, Text) %>% 
  group_by(ID)

KLC_eng %>% 
  select(ID, Nationality, Text) %>% 
  unnest_tokens(word, Text) %>% 
  group_by(ID)
```

    # A tibble: 7,751 × 3
    # Groups:   ID [81]
       ID                    Nationality word      
       <chr>                 <chr>       <chr>     
     1 A100003_v01.txt_1.txt 미국        우리      
     2 A100003_v01.txt_1.txt 미국        집에      
     3 A100003_v01.txt_1.txt 미국        갔습니다  
     4 A100003_v01.txt_1.txt 미국        강아지하고
     5 A100003_v01.txt_1.txt 미국        제        
     6 A100003_v01.txt_1.txt 미국        집에      
     7 A100003_v01.txt_1.txt 미국        갔습니다  
     8 A100003_v01.txt_1.txt 미국        우리가    
     9 A100003_v01.txt_1.txt 미국        놀았습니다
    10 A100003_v01.txt_1.txt 미국        저는      
    # … with 7,741 more rows
…
    Warning: `cols` is now required when using unnest().
    Please use `cols = c(num_token)`

    [1] 37

``` r
unique(unnest(KLC_clean[2,9]))
```

    Warning: `cols` is now required when using unnest().
    Please use `cols = c(num_token)`

    # A tibble: 41 × 1
       num_token 
       <chr>     
     1 저/PRON   
     2 는/JX     
     3 여행/NNG  
     4 을/JKO    
     5 좋아하/VV 
     6 ㅂ니다/EF 
     7 십이월/NNG
     8 에/JKB    
     9 가/VV     
    10 고/EC     
    # … with 31 more rows

``` r
unique(unnest(KLC_clean[3,9]))
```

    Warning: `cols` is now required when using unnest().
    Please use `cols = c(num_token)`

    # A tibble: 61 × 1
       num_token
       <chr>    
     1 저/PRON  
     2 는/JX    
     3 방학/NNG 
     4 기간/NNG 
     5 에/JKB   
     6 여행/NNG 
     7 을/JKO   
     8 가/VV    
     9 고/EC    
    10 싶/VX    
    # … with 51 more rows

``` r
KLC_clean %>% 
  group_by(ID) %>% 
  select(num_token) %>% 
  unnest() %>% 
  unique() 
```

    Adding missing grouping variables: `ID`

    Warning: `cols` is now required when using unnest().
    Please use `cols = c(num_token)`

    # A tibble: 7,643 × 2
    # Groups:   ID [81]
       ID                    num_token 
       <chr>                 <chr>     
     1 A100003_v01.txt_1.txt 우리/PRON 
     2 A100003_v01.txt_1.txt 집/NNG    
     3 A100003_v01.txt_1.txt 에/JKB    
     4 A100003_v01.txt_1.txt 가/VV     
     5 A100003_v01.txt_1.txt 았/EP     
     6 A100003_v01.txt_1.txt 습니다/EF 
     7 A100003_v01.txt_1.txt 강아지/NNG
     8 A100003_v01.txt_1.txt 하/XSV    
     9 A100003_v01.txt_1.txt 고/EC     
    10 A100003_v01.txt_1.txt 제/XPN    
    # … with 7,633 more rows
…
    Error in count(num_token): 객체 'num_token'를 찾을 수 없습니다

``` r
a
```

    # A tibble: 81 × 2
       ID                    num_token  
       <chr>                 <list>     
     1 A100003_v01.txt_1.txt <chr [84]> 
     2 A100004_v01.txt_1.txt <chr [82]> 
     3 A100011_v03.txt_1.txt <chr [115]>
     4 A100074_v03.txt_1.txt <chr [75]> 
     5 A100140_v02.txt_1.txt <chr [69]> 
     6 A100148_v02.txt_1.txt <chr [89]> 
     7 A100154_v02.txt_1.txt <chr [53]> 
     8 A100166_v02.txt_1.txt <chr [93]> 
     9 A100234_v02.txt_1.txt <chr [69]> 
    10 A100235_v02.txt_1.txt <chr [90]> 
    # … with 71 more rows

``` r
KLC_eng %>%
  select(ID, Morphemes) %>% 
  map(~ str_split(., " (\\+)?")) %>% 
  as_data_frame() %>% 
  rename(num_token = Morphemes) %>% 
  unnest(ID)
```

    # A tibble: 81 × 2
       ID                    num_token  
       <chr>                 <list>     
     1 A100003_v01.txt_1.txt <chr [84]> 
     2 A100004_v01.txt_1.txt <chr [82]> 
     3 A100011_v03.txt_1.txt <chr [115]>
     4 A100074_v03.txt_1.txt <chr [75]> 
     5 A100140_v02.txt_1.txt <chr [69]> 
     6 A100148_v02.txt_1.txt <chr [89]> 
     7 A100154_v02.txt_1.txt <chr [53]> 
     8 A100166_v02.txt_1.txt <chr [93]> 
     9 A100234_v02.txt_1.txt <chr [69]> 
    10 A100235_v02.txt_1.txt <chr [90]> 
    # … with 71 more rows
…
how to calculate lexical diversity: how many different words are used in
each person’s essay?; the number of *word type* divided by the number of
*tokens*

``` r
head(PELIC_clean, 10) %>% 
  select(anon_id, tok_lem_POS) %>% 
  mutate(tok_lem_POS = tok_lem_POS %>% 
           str_remove_all("\\[") %>% 
           str_remove_all("\\]") %>% 
           str_split("(\\))+,")) %>% # I can't figure out how to split the string in the correct way. I wanna leave ')' in each value.
  unnest(tok_lem_POS)
```

    # A tibble: 1,581 × 2
       anon_id tok_lem_POS                            
       <chr>   <chr>                                  
     1 at8     "('my', 'my', 'PRP$'"                  
     2 at8     " ('friend', 'friend', 'NN'"           
     3 at8     " ('is', 'be', 'VBZ'"                  
     4 at8     " ('ANON_NAME_0', 'ANON_NAME_0', 'NNP'"
     5 at8     " ('.', '.', '.'"                      
     6 at8     " ('she', 'she', 'PRP'"                
     7 at8     " ('is', 'be', 'VBZ'"                  
     8 at8     " ('a', 'a', 'DT'"                     
     9 at8     " ('my', 'my', 'PRP$'"                 
    10 at8     " ('ELI', 'ELI', 'NNP'"                
    # … with 1,571 more rows
…
    # A tibble: 2,404 × 0

##### codes needed for my project from Dan (Thanks!!!)

``` r
PELIC_ans %>% 
  mutate(tokens = tokens %>% 
           str_remove_all("\\['|'\\]|\\s") %>% 
           str_split("','")) %>% 
  unnest(tokens)
```

    # A tibble: 4,709,950 × 10
       answer_id questio…¹ anon_id cours…² version created_date        text_…³ text 
           <dbl>     <dbl> <chr>     <dbl>   <dbl> <dttm>                <dbl> <chr>
     1         1         5 eq0         149       1 2006-09-20 16:11:08     177 I me…
     2         1         5 eq0         149       1 2006-09-20 16:11:08     177 I me…
     3         1         5 eq0         149       1 2006-09-20 16:11:08     177 I me…
     4         1         5 eq0         149       1 2006-09-20 16:11:08     177 I me…
     5         1         5 eq0         149       1 2006-09-20 16:11:08     177 I me…
     6         1         5 eq0         149       1 2006-09-20 16:11:08     177 I me…
     7         1         5 eq0         149       1 2006-09-20 16:11:08     177 I me…
     8         1         5 eq0         149       1 2006-09-20 16:11:08     177 I me…
     9         1         5 eq0         149       1 2006-09-20 16:11:08     177 I me…
    10         1         5 eq0         149       1 2006-09-20 16:11:08     177 I me…
    # … with 4,709,940 more rows, 2 more variables: tokens <chr>,
    #   tok_lem_POS <chr>, and abbreviated variable names ¹​question_id, ²​course_id,
    #   ³​text_len
…
