…
KLC_clean %>% 
  filter(Level == "C2")
```

    # A tibble: 289 × 8
       ID                    Nationality Gender Topic      Text  Morph…¹ Level Score
       <chr>                 <chr>       <chr>  <chr>      <chr> <chr>   <chr> <dbl>
     1 C200000_v01.txt_1.txt 홍콩        여자   공공장소   2011… +년/NN… C2       80
     2 C200000_v01.txt_2.txt 홍콩        여자   문화       홍콩… 홍콩/N… C2       70
     3 C200000_v02.txt_1.txt 홍콩        여자   건강       건강… 건강/N… C2       70
     4 C200000_v02.txt_2.txt 홍콩        여자   안락사     안락… 안락사… C2       80
     5 C200001_v01.txt_1.txt 중국        여자   친구 한 …  제 …  제/MM … C2       60
     6 C200001_v01.txt_2.txt 중국        여자   이 시대에… 이 …  이/MM … C2       70
     7 C200001_v02.txt_1.txt 일본        여자   건강       음식… 음식/N… C2       90
     8 C200001_v02.txt_2.txt 일본        여자   안락사     안락… 안락사… C2      100
     9 C200002_v01.txt_1.txt 콜롬비아    여자   친구 한 …  그 …  그/MM … C2       90
    10 C200002_v01.txt_2.txt 콜롬비아    여자   이 시대에… 이 …  이/MM … C2       90
    # … with 279 more rows, and abbreviated variable name ¹​Morphemes
…
KLC_eng %>% 
  select(ID, Nationality, Text) %>% 
  unnest_tokens(word, Text) %>% 
  group_by(ID)
```

    # A tibble: 7,751 × 3
    # Groups:   ID [81]
       ID                    Nationality word      
       <chr>                 <chr>       <chr>     
     1 A100003_v01.txt_1.txt 미국        우리      
     2 A100003_v01.txt_1.txt 미국        집에      
     3 A100003_v01.txt_1.txt 미국        갔습니다  
     4 A100003_v01.txt_1.txt 미국        강아지하고
     5 A100003_v01.txt_1.txt 미국        제        
     6 A100003_v01.txt_1.txt 미국        집에      
     7 A100003_v01.txt_1.txt 미국        갔습니다  
     8 A100003_v01.txt_1.txt 미국        우리가    
     9 A100003_v01.txt_1.txt 미국        놀았습니다
    10 A100003_v01.txt_1.txt 미국        저는      
    # … with 7,741 more rows

``` r
KLC_eng %>% 
  select(ID,Nationality, Text)
```

    # A tibble: 81 × 3
       ID                    Nationality Text                                       
       <chr>                 <chr>       <chr>                                      
     1 A100003_v01.txt_1.txt 미국        우리 집에 갔습니다. 강아지하고 제 집에 갔… 
     2 A100004_v01.txt_1.txt 미국        저는 여행을 좋아합니다. 십이월에 여행을 가…
     3 A100011_v03.txt_1.txt 영국        저는 방학 기간에 여행을 가고 싶습니다. 시… 
     4 A100074_v03.txt_1.txt 호주        어제가 부산에서 갔어요. 11시에 부신에서 도…
     5 A100140_v02.txt_1.txt 미국        일요일에 명동에 갔습니다. 제 친구하고 명동…
     6 A100148_v02.txt_1.txt 미국        이번 주말에 저는 영화을 가고 싶습니다. 토… 
     7 A100154_v02.txt_1.txt 필리핀      저는 필리핀에서 갔습니다. 저 친구하고 갔습…
     8 A100166_v02.txt_1.txt 필리핀      저는 여행에 부산에 갈 겁니다. 일요일 다음 …
     9 A100234_v02.txt_1.txt 필리핀      지난 주말에 인사동에 갔습니다. 택시 정류소…
    10 A100235_v02.txt_1.txt 필리핀      다음 주에 여행이 하고 싶습니다. 우리는 부… 
    # … with 71 more rows
…
``` r
PELIC1 <- full_join(PELIC_ans1, PELIC_crs1, by = "course_id")

PELIC2 <- full_join(PELIC_ans1, PELIC_scr1, PELIC_id1, by = "anon_id")

PELIC1 <- PELIC1 %>%
  select(anon_id, level_id)

PELIC_clean <- full_join(PELIC1,PELIC2, by = "anon_id")


PELIC_clean
```

    # A tibble: 3,843,499 × 8
       anon_id level_id course_id text_len text               tokens MTELP…¹ Writi…²
       <chr>      <dbl>     <dbl>    <dbl> <chr>              <chr>    <dbl>   <dbl>
     1 eq0            4       149      177 "I met my friend … "['I'…      28       1
     2 eq0            4       113       48 "My favorite reci… "['My…      28       1
     3 eq0            4       149      113 "Welcome! I'm ANO… "['We…      28       1
     4 eq0            4       101       24 "commercial:\nTod… "['co…      28       1
     5 eq0            4       101       46 "commercial:\nTod… "['co…      28       1
     6 eq0            4       149      119 "I feel good when… "['I'…      28       1
     7 eq0            4       149       36 "2. Elena Garro, … "['2'…      28       1
     8 eq0            4       101      207 "1. \n- Word: res… "['1'…      28       1
     9 eq0            4       113      275 "ANON_NAME_0's Re… "['AN…      28       1
    10 eq0            4       176      364 "The Best Way to … "['Th…      28       1
    # … with 3,843,489 more rows, and abbreviated variable names ¹​MTELP_Conv_Score,
    #   ²​Writing_Sample
